<svg width="64" height="63" viewBox="0 0 64 63" fill="none" xmlns="http://www.w3.org/2000/svg">
<g opacity="0.7" filter="url(#filter0_d)">
<rect x="7.5" y="5.5" width="49" height="47.7552" rx="23.8776" fill="#1E68E0" stroke="#F1F1F1"/>
</g>
<g clip-path="url(#clip0)">
<path d="M36.839 31.868C39.2398 28.4779 38.4368 23.7836 35.0467 21.3834C31.6566 18.9831 26.9623 19.7855 24.5621 23.1762C22.1619 26.5663 22.9642 31.2601 26.3549 33.6603C28.7746 35.3734 31.9738 35.5053 34.5259 33.9981L40.0714 39.5102C40.6701 40.1406 41.6664 40.1658 42.2967 39.567C42.927 38.9688 42.9522 37.9726 42.354 37.3423C42.3351 37.3222 42.3167 37.3039 42.2967 37.285L36.839 31.868ZM30.6959 32.3819C28.017 32.3825 25.845 30.2122 25.8433 27.5333C25.8427 24.8543 28.013 22.6824 30.6925 22.6812C33.368 22.6801 35.5388 24.8469 35.544 27.5224C35.5485 30.2019 33.3795 32.3773 30.6994 32.3819C30.6982 32.3819 30.6977 32.3819 30.6959 32.3819Z" fill="white"/>
</g>
<defs>
<filter id="filter0_d" x="0" y="0" width="64" height="62.7552" filterUnits="userSpaceOnUse" color-interpolation-filters="sRGB">
<feFlood flood-opacity="0" result="BackgroundImageFix"/>
<feColorMatrix in="SourceAlpha" type="matrix" values="0 0 0 0 0 0 0 0 0 0 0 0 0 0 0 0 0 0 127 0"/>
<feOffset dy="2"/>
<feGaussianBlur stdDeviation="3.5"/>
<feColorMatrix type="matrix" values="0 0 0 0 0 0 0 0 0 0 0 0 0 0 0 0 0 0 0.07 0"/>
<feBlend mode="normal" in2="BackgroundImageFix" result="effect1_dropShadow"/>
<feBlend mode="normal" in="SourceGraphic" in2="effect1_dropShadow" result="shape"/>
</filter>
<clipPath id="clip0">
<rect x="23" y="20" width="20" height="20" fill="white"/>
</clipPath>
</defs>
</svg>
